[
  {
    "text": "Introduction",
    "items": [
      {
        "text": "Getting Started",
        "link": ""
      },
      {
        "text": "UI Helpers",
        "link": "ui-helpers"
      }
    ]
  }
]
